// Jest Snapshot v1, https://goo.gl/fbAQLP

exports[`rule attribute-allowed-values should contain contextual documentation 1`] = `
Object {
  "description": "Element <any> does not allow attribute \`foo\` to have the value \`\\"bar\\"\`, it must match one of the following:

- \`spam\`
- \`ham\`
- \`/\\\\d+/\`",
  "url": "https://html-validate.org/rules/attribute-allowed-values.html",
}
`;

exports[`rule attribute-allowed-values should contain contextual documentation when attribute should be boolean 1`] = `
Object {
  "description": "Element <any> attribute \`foo\` must be a boolean attribute, e.g. \`<any foo>\`",
  "url": "https://html-validate.org/rules/attribute-allowed-values.html",
}
`;

exports[`rule attribute-allowed-values should contain documentation 1`] = `
Object {
  "description": "Attribute has invalid value.",
  "url": "https://html-validate.org/rules/attribute-allowed-values.html",
}
`;

exports[`rule attribute-allowed-values smoketest 1`] = `
Array [
  Object {
    "errorCount": 1,
    "filePath": "test-files/rules/attribute-allowed-values.html",
    "messages": Array [
      Object {
        "column": 14,
        "context": Object {
          "allowed": Array [
            "button",
            "checkbox",
            "color",
            "date",
            "datetime-local",
            "email",
            "file",
            "hidden",
            "image",
            "month",
            "number",
            "password",
            "radio",
            "range",
            "reset",
            "search",
            "submit",
            "tel",
            "text",
            "time",
            "url",
            "week",
          ],
          "attribute": "type",
          "element": "input",
          "value": "foobar",
        },
        "line": 3,
        "message": "Attribute \\"type\\" has invalid value \\"foobar\\"",
        "offset": 41,
        "ruleId": "attribute-allowed-values",
        "ruleUrl": "https://html-validate.org/rules/attribute-allowed-values.html",
        "selector": "input:nth-child(3)",
        "severity": 2,
        "size": 6,
      },
    ],
    "source": "<input>
<input type=\\"text\\">
<input type=\\"foobar\\">

<!-- rule should normalize boolean attributes -->
<input required>
<input required=\\"\\">
<input required=\\"required\\">
",
    "warningCount": 0,
  },
]
`;
