// Jest Snapshot v1, https://goo.gl/fbAQLP

exports[`rule element-permitted-content should contain documentation 1`] = `
Object {
  "description": "Some elements has restrictions on what content is allowed. This can include both direct children or descendant elements.",
  "url": "https://html-validate.org/rules/element-permitted-content.html",
}
`;
